C:\Users\martijn\Downloads\PageObjectFactoryModel\SeleniumFramework\src\test\java\cucumbertest\testrunner\CucumberRunnerTest.java
C:\Users\martijn\Downloads\PageObjectFactoryModel\SeleniumFramework\src\test\java\cucumbertest\steps\StepDefinitions.java
C:\Users\martijn\Downloads\PageObjectFactoryModel\SeleniumFramework\src\test\java\seleniumtests\LoginTest.java
